Multinomial Logit and Truncation Model
…
The coefficient of years education is 0.1037 and its standard error is 0.0097

Now assume any observation with wage  20 to have wage = 20 so that everyone from part (a) still remains in the sample, but if they earn above $20 an hour, then it is assumed as equal to $20. Run the regression from part (a) and comment on the coefficient on educ.

updatehtv<-mutate(htv, newwage=ifelse(wage>=20,20,wage))
updatehtv

## # A tibble: 1,230 x 24
##     wage   abil  educ    ne    nc  west south exper motheduc fatheduc brkhme14
##    <dbl>  <dbl> <dbl> <dbl> <dbl> <dbl> <dbl> <dbl>    <dbl>    <dbl>    <dbl>
##  1 12.0   5.03     15     0     0     1     0     9       12       12        0
##  2  8.91  2.04     13     1     0     0     0     8       12       10        1
##  3 15.5   2.48     15     1     0     0     0    11       12       16        0
##  4 13.3   3.61     15     1     0     0     0     6       12       12        0
##  5 11.1   2.64     13     1     0     0     0    15       12       15        1
##  6 17.5   3.47     18     1     0     0     0     8       12       12        0
##  7 21.1  -1.76     13     1     0     0     0    13       13       12        0
##  8 11.7  -0.134    12     0     0     0     1    14       12       12        1
##  9 17.0   2.07     13     1     0     0     0     9       10       12        1
## 10 11.5  -0.338    12     1     0     0     0     9       14       12        0
## # ... with 1,220 more rows, and 13 more variables: sibs <dbl>, urban <dbl>,
## #   ne18 <dbl>, nc18 <dbl>, south18 <dbl>, west18 <dbl>, urban18 <dbl>,
## #   tuit17 <dbl>, tuit18 <dbl>, lwage <dbl>, expersq <dbl>, ctuit <dbl>,
## #   newwage <dbl>
…
The coeffiction of edu is 0.098, higher than that in part b. And its standard errors is 0.0098, which is a little bit higher than that of part a, so the censoring correction appear to recover the effect of educ in the full population

Now drop all observations with wage  20, so that everyone remaining in the sample earns less than $20 an hour. Run the regression from part (a) and comment on the coefficient on educ.

newhtv<-filter(htv,wage<20)
newhtv

## # A tibble: 1,066 x 23
##     wage   abil  educ    ne    nc  west south exper motheduc fatheduc brkhme14
##    <dbl>  <dbl> <dbl> <dbl> <dbl> <dbl> <dbl> <dbl>    <dbl>    <dbl>    <dbl>
##  1 12.0   5.03     15     0     0     1     0     9       12       12        0
##  2  8.91  2.04     13     1     0     0     0     8       12       10        1
##  3 15.5   2.48     15     1     0     0     0    11       12       16        0
##  4 13.3   3.61     15     1     0     0     0     6       12       12        0
##  5 11.1   2.64     13     1     0     0     0    15       12       15        1
##  6 17.5   3.47     18     1     0     0     0     8       12       12        0
##  7 11.7  -0.134    12     0     0     0     1    14       12       12        1
##  8 17.0   2.07     13     1     0     0     0     9       10       12        1
##  9 11.5  -0.338    12     1     0     0     0     9       14       12        0
## 10 14.8   1.38     12     1     0     0     0    13        9       10        1
## # ... with 1,056 more rows, and 12 more variables: sibs <dbl>, urban <dbl>,
## #   ne18 <dbl>, nc18 <dbl>, south18 <dbl>, west18 <dbl>, urban18 <dbl>,
## #   tuit17 <dbl>, tuit18 <dbl>, lwage <dbl>, expersq <dbl>, ctuit <dbl>
…
